{
  "fields": [
    {
      "id": "aws_bucket_region",
      "type": "string",
      "label": "AWS Bucket Region"
    },
    {
      "id": "aws_bucket_name",
      "type": "string",
      "label": "AWS Bucket Name"
    }
  ],
  "required": [
    "aws_bucket_region",
    "aws_bucket_name"
  ]
}
